Travailler avec les tibbles
…
library(prenoms)
?prenoms

Les données

Maintenant que vous en savez un peu sur le jeu de données, examinons son contenu. Si vous exécutez prenoms sur votre console R, vous obtiendrez une sortie qui ressemble à ceci :

Data Science avec les Prenoms

La popularité d’un prénom au cours du temps

Nous avons au préalable modifié pour les besoins du cours les données de prenoms (comparé à celles disponibles dans le package) pour faciliter les tâches qui viennent. Voici maintenant le format des données prenoms (prop représente la proportion de bébés d’un sexe donné qui ont eu ce prénom cette année précise) :

## # A tibble: 252,981 × 5
##     year sex   name         n      prop
##    <int> <chr> <chr>    <int>     <dbl>
##  1  1900 M     Abel       378 0.00227  
##  2  1900 M     Abraham      8 0.0000480
##  3  1900 M     Achille    150 0.000900 
##  4  1900 M     Achilles     4 0.0000240
##  5  1900 M     Adam         9 0.0000540
##  6  1900 F     Adelaide   140 0.000629 
##  7  1900 F     Adèle      623 0.00280  
##  8  1900 F     Adelheid     3 0.0000135
##  9  1900 F     Adelina     25 0.000112 
## 10  1900 F     Adeline    168 0.000754 
## # … with 252,971 more rows
…
Chaque fonction prend un data.frame ou un tibble et renvoie un nouveau data.frame ou un tibble en sortie.

select()

select() selectionne les colonnes d’un jeu de données et retourne les colonnes comme un nouveau jeu de données. Pour utiliser select(), passez-lui le nom du jeu de données dont extraire les colonnes, puis les noms des colonnes à extraire.

Aparté pour les déjà utilisateurs de R qui découvriraient le tidyverse : les noms de colonnes n’ont pas besoin d’apparaître entre guillemets ni d’être précédés par un $. En effet, select() sait les trouver dans le jeu de données que vous lui fournissez.

Exercice - select()

Utilisez l’exemple ci-dessous pour avoir une idée du fonctionnement de select(). Pouvez-vous sélectionner uniquement la colonne name ? Et comment extraire name et year ? Que diriez-vous de sélectionner toutes les colonnes sauf prop ?

select(prenoms, name, sex)

# A tibble: 252,981 × 2
   name     sex  
   <chr>    <chr>
 1 Abel     M    
 2 Abraham  M    
 3 Achille  M    
 4 Achilles M    
 5 Adam     M    
 6 Adelaide F    
 7 Adèle    F    
 8 Adelheid F    
 9 Adelina  F    
10 Adeline  F    
# … with 252,971 more rows
…
Quiz select()

filter()

filter() extrait les lignes d’un jeu de données et les renvoie comme un nouveau jeu de données. Comme avec select(), le premier argument de filter() doit être un jeu de données dont on souhaite extraire des lignes. Les arguments qui suivent doivent être des tests logiques : filter() renverra chaque ligne pour laquelle les tests renverront TRUE (c’est-à-dire pour lesquelles la condition que l’on teste est vérifiée).

filter() en action

Par exemple, le bloc de code ci-dessous renvoie chaque ligne avec le prénom “Annie” dans prenoms.

filter(prenoms, name == "Annie")

## # A tibble: 108 × 5
##     year sex   name      n       prop
##    <int> <chr> <chr> <int>      <dbl>
##  1  1903 F     Annie     1 0.00000406
##  2  1904 F     Annie     8 0.0000320 
##  3  1907 F     Annie     3 0.0000118 
##  4  1908 F     Annie     1 0.00000377
##  5  1909 F     Annie     4 0.0000151 
##  6  1910 F     Annie     3 0.0000112 
##  7  1911 F     Annie     7 0.0000274 
##  8  1913 F     Annie     6 0.0000222 
##  9  1914 F     Annie    15 0.0000564 
## 10  1915 F     Annie     7 0.0000416 
## # … with 98 more rows
…
Lorsque vous utilisez des tests logiques, veillez à rechercher ces deux erreurs courantes :

utiliser = au lieu de == pour tester l’égalité

oublier d’utiliser des guillemets lors de la comparaison de chaînes, par ex. name == Marie, au lieu dename == "Marie".

Combinaison de tests

Si vous fournissez plus d’un test à filter(), filter() combinera les tests avec une instruction et (&) : il ne renverra que les lignes qui satisfont tous les tests.

Pour combiner plusieurs tests d’une manière différente, utilisez les opérateurs booléens de R. Par exemple, le code ci-dessous renverra tous les enfants prénommés Julie ou Antoinette.

filter(prenoms, name == "Julie" | name == "Antoinette")

## # A tibble: 233 × 5
##     year sex   name           n    prop
##    <int> <chr> <chr>      <int>   <dbl>
##  1  1900 F     Antoinette  1514 0.00680
##  2  1900 F     Julie       1019 0.00458
##  3  1901 F     Antoinette  1735 0.00715
##  4  1901 F     Julie       1138 0.00469
##  5  1902 F     Antoinette  1698 0.00689
##  6  1902 F     Julie       1018 0.00413
##  7  1903 F     Antoinette  1674 0.00680
##  8  1903 F     Julie       1054 0.00428
##  9  1904 F     Antoinette  1638 0.00656
## 10  1904 F     Julie        918 0.00368
## # … with 223 more rows
…
Exercice - Combinaison de tests

Utilisez les opérateurs booléens pour modifier le bloc de code ci-dessous pour renvoyer uniquement les lignes qui contiennent :

Les filles prénommées Agnès

Les prénoms qui ont été données à exactement 5 ou 6 enfants en 1900

Les prénoms Marie, Mariette ou Marine

filter(prenoms, name == "Julie" | name == "Antoinette")

# A tibble: 233 × 5
    year sex   name           n    prop
   <int> <chr> <chr>      <int>   <dbl>
 1  1900 F     Antoinette  1514 0.00680
 2  1900 F     Julie       1019 0.00458
 3  1901 F     Antoinette  1735 0.00715
 4  1901 F     Julie       1138 0.00469
 5  1902 F     Antoinette  1698 0.00689
 6  1902 F     Julie       1018 0.00413
 7  1903 F     Antoinette  1674 0.00680
 8  1903 F     Julie       1054 0.00428
 9  1904 F     Antoinette  1638 0.00656
10  1904 F     Julie        918 0.00368
# … with 223 more rows
…
Si vous donnez à arrange() un seul nom de colonne, il renverra les lignes du jeu de données réorganisées de sorte que la ligne avec la valeur la plus basse dans cette colonne apparaisse en premier, la ligne avec la deuxième valeur la plus basse apparaisse en deuxième, et ainsi de suite. Si la colonne contient des chaînes de caractères, arrange() les placera par ordre alphabétique.

Exercice - arrange()

Utilisez le bloc de code ci-dessous pour organiser les prénoms en fonction de n. Pouvez-vous dire quelle est la plus petite valeur de n?

arrange(prenoms, n)

Gestion des ex-aequo

Si vous renseignez plusieurs noms de colonnes, arrange() les utilisera successivement pour réorganiser les lignes qui ont des valeurs identiques dans les colonnes précédentes. Complétez le code ci-dessous avec la colonne prop pour illustrer ce fonctionnement. Le résultat doit d’abord classer les lignes en fonction de la valeur de n, puis réorganiser les lignes de chaque valeur de n en fonction des valeurs de prop.

arrange(prenoms, n)

# A tibble: 252,981 × 5
    year sex   name        n       prop
   <int> <chr> <chr>   <int>      <dbl>
 1  1900 F     Aida        1 0.00000449
 2  1900 F     Arlette     1 0.00000449
 3  1900 M     Carlos      1 0.00000600
 4  1900 F     Dorothy     1 0.00000449
 5  1900 F     Ellen       1 0.00000449
 6  1900 M     Jacob       1 0.00000600
 7  1900 F     Liane       1 0.00000449
 8  1900 F     Mary        1 0.00000449
 9  1900 M     Nathan      1 0.00000600
10  1900 F     Sabine      1 0.00000449
# … with 252,971 more rows

arrange(prenoms, n, prop)

desc

Si vous préférez organiser les lignes dans l’ordre inverse, c’est-à-dire des valeurs les plus grandes aux valeurs les plus petites, entourez un nom de colonne avec la fonction desc(). arrange() réordonnera les lignes des plus grandes valeurs aux plus petites.

Ajoutez un desc() au code ci-dessous pour afficher le prénom le plus populaire pour 2018 (la plus grande année du jeu de données) au lieu de 1900 (la plus petite année du jeu de données).

arrange(prenoms, year, desc(prop))

# A tibble: 252,981 × 5
    year sex   name           n   prop
   <int> <chr> <chr>      <int>  <dbl>
 1  1900 F     Marie      48709 0.219 
 2  1900 M     Jean       14094 0.0846
 3  1900 F     Jeanne     13978 0.0628
 4  1900 M     Louis       9048 0.0543
 5  1900 M     Pierre      7450 0.0447
 6  1900 M     Joseph      7253 0.0435
 7  1900 M     Henri       6913 0.0415
 8  1900 M     Marcel      6531 0.0392
 9  1900 F     Marguerite  8054 0.0362
10  1900 M     Georges     5649 0.0339
# … with 252,971 more rows
…
Remarquez comment chaque fonction de {dplyr} prend un jeu de données en entrée et renvoie un jeu de données en sortie. Cela rend les fonctions faciles “brancher” les unes aux autres pour réaliser des suites d’étapes. Par exemple, vous pourriez :

Filtrer les prénoms de bébé pour les garçons nés en 2018

Sélectionner les colonnes name et n dans le résultat

Organiser ces colonnes de sorte que les prénoms les plus populaires apparaissent en haut.

boys_2018 <- filter(prenoms, year == 2018, sex == "M")
boys_2018 <- select(boys_2018, name, n)
boys_2018 <- arrange(boys_2018, desc(n))
boys_2018

## # A tibble: 2,153 × 2
##    name        n
##    <chr>   <int>
##  1 Gabriel  5421
##  2 Raphaël  4590
##  3 Léo      4446
##  4 Louis    4410
##  5 Lucas    3979
##  6 Adam     3886
##  7 Arthur   3751
##  8 Jules    3696
##  9 Hugo     3689
## 10 Maël     3260
## # … with 2,143 more rows
…
arrange(select(filter(prenoms, year == 2018, sex == "M"), name, n), desc(n))

Le package {dplyr} fournit une troisième façon d’écrire des séquences de fonctions : le pipe %>%. Le pipe peut être vu comme un flux, dans lequel nous réalisons une série d’opérations sur les données.

%>%

L’opérateur pipe %>% effectue la tâche suivante : il passe l’objet à gauche en premier argument de la fonction à droite. Ou en d’autres termes, x %>% f(y) est identique à f(x, y). Cette manière d’écrire du code facilite l’écriture et la lecture d’une série de fonctions qui sont appliquées étape par étape. Par exemple, nous pouvons utiliser le pipe pour réécrire notre code ci-dessus :

prenoms %>% 
  filter(year == 2018, sex == "M") %>% 
  select(name, n) %>% 
  arrange(desc(n))

## # A tibble: 2,153 × 2
##    name        n
##    <chr>   <int>
##  1 Gabriel  5421
##  2 Raphaël  4590
##  3 Léo      4446
##  4 Louis    4410
##  5 Lucas    3979
##  6 Adam     3886
##  7 Arthur   3751
##  8 Jules    3696
##  9 Hugo     3689
## 10 Maël     3260
## # … with 2,143 more rows
…
